%YAML 1.1
%TAG !u! tag:unity3d.com,2011:
--- !u!1045 &1
EditorBuildSettings:
  m_ObjectHideFlags: 0
  serializedVersion: 2
  m_Scenes:
  - enabled: 1
    path: Assets/_Scenes/01_Menu.unity
    guid: 4b81b75576bd2b14ba6901c6d433352d
  - enabled: 1
    path: Assets/_Scenes/02_Game.unity
    guid: 82903963df2b0564899d0d376571e75e
  - enabled: 1
    path: Assets/_Scenes/03_GameOver.unity
    guid: 00000000000000000000000000000000
